o   HUAWEI P8 LITE 2017 - 244*437
o   SAMSUNG S6 - 360*640
o   IPHONE 7 - 375*667
o   CROSSCALL M1 TREKKER - 540*960


@media all and (min-width: 243px) and (max-width: 245px) {
	/*huawei*/
}

@media all and (min-width: 359px) and (max-width: 361px) {
	/*samsung s6*/
}

@media all and (min-width: 374px) and (max-width: 376px) {
	/*iphone 7*/
}

@media all and (min-width: 539px) and (max-width: 541px) {
	/*crosscall*/
}